Practical Machine Learning: Project
…
The purpose of this project is to successfully fit a machine learning algorithm to the HAR (Human Activity Recognition) Weight Lifting dataset. In this dataset, participants were equipped with activity monitors while they performed 5 different movements: perfect dumbbell curl (classe = A) and imperfect dumbbell curls (classe = B, C, D, E). Using the metrics generated by the activity monitors, we will create an algorithm that can successfully predict which motion the participant is conducting.

Exploration and Cleaning

library(tidyverse)
library(caret)

First, lets load the data and take a preliminary look at them.

train <- read_csv("pml-training.csv")
test <- read_csv("pml-testing.csv")

train

## # A tibble: 19,622 x 160
##       X1 user_name raw_timestamp_pa raw_timestamp_pa cvtd_timestamp new_window
##    <dbl> <chr>                 <dbl>             <dbl> <chr>          <chr>     
##  1     1 carlitos         1323084231            788290 05/12/2011 11 no        
##  2     2 carlitos         1323084231            808298 05/12/2011 11 no        
##  3     3 carlitos         1323084231            820366 05/12/2011 11 no        
##  4     4 carlitos         1323084232            120339 05/12/2011 11 no        
##  5     5 carlitos         1323084232            196328 05/12/2011 11 no        
##  6     6 carlitos         1323084232            304277 05/12/2011 11 no        
##  7     7 carlitos         1323084232            368296 05/12/2011 11 no        
##  8     8 carlitos         1323084232            440390 05/12/2011 11 no        
##  9     9 carlitos         1323084232            484323 05/12/2011 11 no        
## 10    10 carlitos         1323084232            484434 05/12/2011 11 no        
## #  with 19,612 more rows, and 154 more variables: num_window <dbl>,
## #   roll_belt <dbl>, pitch_belt <dbl>, yaw_belt <dbl>, total_accel_belt <dbl>,
## #   kurtosis_roll_belt <chr>, kurtosis_picth_belt <chr>,
## #   kurtosis_yaw_belt <chr>, skewness_roll_belt <chr>,
## #   skewness_roll_belt.1 <chr>, skewness_yaw_belt <chr>, max_roll_belt <dbl>,
## #   max_picth_belt <dbl>, max_yaw_belt <chr>, min_roll_belt <dbl>,
## #   min_pitch_belt <dbl>, min_yaw_belt <chr>, amplitude_roll_belt <dbl>,
## #   amplitude_pitch_belt <dbl>, amplitude_yaw_belt <chr>,
## #   var_total_accel_belt <dbl>, avg_roll_belt <dbl>, stddev_roll_belt <dbl>,
…
